gift_box_green.png
size:233,233
filter:Linear,Linear
pma:true
gif_2_nap
bounds:2,118,156,113
gif_duoi
bounds:2,3,139,113
light
bounds:143,21,48,95
offsets:60,16,207,111
star1
bounds:160,153,71,78
offsets:3,0,79,78
