Win and Ribbon.png
size:1635,487
filter:Linear,Linear
pma:true
Data/star 2
bounds:671,257,241,228
Elements-20230818T064838Z-001/Elements/light
bounds:1157,10,475,476
offsets:0,0,477,476
rotate:90
Elements-20230818T064838Z-001/Elements/ribbon2
bounds:2,2,1006,253
Elements-20230818T064838Z-001/Elements/star
bounds:914,257,241,228
Elements-20230818T064838Z-001/Elements/text_maga_victory
bounds:2,376,667,109
