%YAML 1.1
%TAG !u! tag:unity3d.com,2011:
--- !u!114 &11400000
MonoBehaviour:
  m_ObjectHideFlags: 0
  m_CorrespondingSourceObject: {fileID: 0}
  m_PrefabInstance: {fileID: 0}
  m_PrefabAsset: {fileID: 0}
  m_GameObject: {fileID: 0}
  m_Enabled: 1
  m_EditorHideFlags: 0
  m_Script: {fileID: 11500000, guid: c7e7019f0cc48044bad51b520ce1a775, type: 3}
  m_Name: CurrencyData
  m_EditorClassIdentifier: 
  items:
  - type: 0
    icon: {fileID: 21300000, guid: c1e5439b30e5356458acd8e66faf4ee9, type: 3}
    value: 0
  - type: 1
    icon: {fileID: 21300000, guid: 9fc157e5f1aa9d548b756656146dce70, type: 3}
    value: 0
  - type: 2
    icon: {fileID: 21300000, guid: 674760b6e0855c94b84615ec1c785eb7, type: 3}
    value: 0
